com\bwie\auth\AuthApplication.class
com\bwie\auth\controller\AuthController.class
com\bwie\auth\feign\UserServiceFegin.class
com\bwie\auth\service\AuthService.class
com\bwie\auth\service\impl\AuthServiceImpl.class
